bonusLab/simulation/qsim/bonusLab.msim.vcd
$comment
	File created using the following command:
		vcd file bonusLab.msim.vcd -direction
$end
$date
	Thu Dec 02 21:02:20 2021
$end
$version
	ModelSim Version 10.4d
$end
$timescale
	1ps
$end

$scope module FSM_vlg_vec_tst $end
$var reg 1 ! clock $end
$var reg 1 " resetSM $end
$var reg 1 # start $end
$var wire 1 $ control [3] $end
$var wire 1 % control [2] $end
$var wire 1 & control [1] $end
$var wire 1 ' control [0] $end

$scope module i1 $end
$var wire 1 ( gnd $end
$var wire 1 ) vcc $end
$var wire 1 * unknown $end
$var tri1 1 + devclrn $end
$var tri1 1 , devpor $end
$var tri1 1 - devoe $end
$var wire 1 . ~QUARTUS_CREATED_GND~I_combout $end
$var wire 1 / clock~input_o $end
$var wire 1 0 clock~inputCLKENA0_outclk $end
$var wire 1 1 y.Reset~0_combout $end
$var wire 1 2 resetSM~input_o $end
$var wire 1 3 start~input_o $end
$var wire 1 4 y.Reset~q $end
$var wire 1 5 y.Load~feeder_combout $end
$var wire 1 6 y.Load~q $end
$var wire 1 7 y.S1~feeder_combout $end
$var wire 1 8 y.S1~q $end
$var wire 1 9 y.S2~feeder_combout $end
$var wire 1 : y.S2~q $end
$var wire 1 ; y.S3~feeder_combout $end
$var wire 1 < y.S3~q $end
$var wire 1 = y.S4~feeder_combout $end
$var wire 1 > y.S4~q $end
$var wire 1 ? y.Ready~q $end
$var wire 1 @ y.Idle~0_combout $end
$var wire 1 A y.Idle~q $end
$var wire 1 B WideOr8~combout $end
$upscope $end
$upscope $end
$enddefinitions $end
#0
$dumpvars
0!
0"
1#
0'
0&
0%
0$
0(
1)
x*
1+
1,
1-
0.
0/
00
11
02
13
04
05
06
07
08
09
0:
0;
0<
0=
0>
0?
1@
0A
1B
$end
#5000
1!
1/
10
1A
14
1%
01
15
#10000
0!
0/
00
#15000
1!
1/
10
16
04
0%
1&
0B
05
17
1'
#20000
0!
0/
00
#25000
1!
1/
10
18
06
0&
19
07
#30000
0!
0/
00
#35000
1!
1/
10
1:
08
09
1;
#40000
0!
0/
00
#45000
1!
1/
10
1<
0:
0;
1=
#50000
0!
0/
00
#55000
1!
1/
10
1>
0<
0=
#60000
0!
0/
00
#65000
1!
1/
10
0>
1?
1$
1B
0@
0'
#70000
0!
0/
00
#75000
1!
1/
10
0A
0?
0$
11
1@
#80000
0!
0/
00
#85000
1!
1/
10
1A
14
1%
01
15
#90000
0!
0/
00
#95000
1!
1/
10
16
04
0%
1&
0B
05
17
1'
#100000
0!
0/
00
#105000
1!
1/
10
18
06
0&
19
07
#110000
0!
0/
00
#115000
1!
1/
10
1:
08
09
1;
#120000
0!
0/
00
#125000
1!
1/
10
1<
0:
0;
1=
#130000
0!
0/
00
#135000
1!
1/
10
1>
0<
0=
#140000
0!
0/
00
#145000
1!
1/
10
0>
1?
1$
1B
0@
0'
#150000
0!
0/
00
#155000
1!
1/
10
0A
0?
0$
11
1@
