lab07/simulation/qsim/lab07.msim.vcd
$comment
	File created using the following command:
		vcd file lab07.msim.vcd -direction
$end
$date
	Sun Nov 21 22:18:04 2021
$end
$version
	ModelSim Version 10.4d
$end
$timescale
	1ps
$end

$scope module flipflop_vlg_vec_tst $end
$var reg 1 ! Clock $end
$var reg 1 " D $end
$var wire 1 # Q $end

$scope module i1 $end
$var wire 1 $ gnd $end
$var wire 1 % vcc $end
$var wire 1 & unknown $end
$var tri1 1 ' devclrn $end
$var tri1 1 ( devpor $end
$var tri1 1 ) devoe $end
$var wire 1 * ~QUARTUS_CREATED_GND~I_combout $end
$var wire 1 + Clock~input_o $end
$var wire 1 , D~input_o $end
$var wire 1 - Q~reg0feeder_combout $end
$var wire 1 . Q~reg0_q $end
$upscope $end
$upscope $end
$enddefinitions $end
#0
$dumpvars
0!
0"
0#
0$
1%
x&
1'
1(
1)
0*
0+
0,
0-
0.
$end
#10500
1"
1,
1-
#15000
1!
1+
1.
1#
#30000
0!
0+
#35000
0"
0,
0-
#45000
1!
1+
0.
0#
#45500
1"
1,
1-
#60000
0!
0+
#70000
0"
0,
0-
#75000
1!
1+
#80500
1"
1,
1-
#90000
0!
0+
#105000
0"
1!
0,
1+
0-
1.
1#
#115500
1"
1,
1-
#120000
0!
0+
#135000
1!
1+
#140000
0"
0,
0-
#150000
0!
0+
#150500
1"
1,
1-
#165000
1!
1+
#175000
0"
0,
0-
#180000
0!
0+
#185500
1"
1,
1-
#195000
1!
1+
#210000
0"
0!
0,
0+
0-
#220500
1"
1,
1-
#225000
1!
1+
#240000
0!
0+
#245000
0"
0,
0-
#255000
1!
1+
0.
0#
#255500
1"
1,
1-
#270000
0!
0+
#280000
0"
0,
0-
#285000
1!
1+
#290500
1"
1,
1-
#300000
0!
0+
#315000
0"
1!
0,
1+
0-
1.
1#
#325500
1"
1,
1-
#330000
0!
0+
#345000
1!
1+
#350000
0"
0,
0-
#360000
0!
0+
#360500
1"
1,
1-
#375000
1!
1+
#385000
0"
0,
0-
#390000
0!
0+
#395500
1"
1,
1-
#405000
1!
1+
#420000
0"
0!
0,
0+
0-
#430500
1"
1,
1-
#435000
1!
1+
#450000
0!
0+
#455000
0"
0,
0-
#465000
1!
1+
0.
0#
#465500
1"
1,
1-
#480000
0!
0+
#490000
0"
0,
0-
#495000
1!
1+
#500500
1"
1,
1-
#510000
0!
0+
#525000
0"
1!
0,
1+
0-
1.
1#
#535500
1"
1,
1-
#540000
0!
0+
#555000
1!
1+
#560000
0"
0,
0-
#570000
0!
0+
#570500
1"
1,
1-
#585000
1!
1+
#595000
0"
0,
0-
#600000
0!
0+
#605500
1"
1,
1-
#615000
1!
1+
#630000
0"
0!
0,
0+
0-
#640500
1"
1,
1-
#645000
1!
1+
#660000
0!
0+
#665000
0"
0,
0-
#675000
1!
1+
0.
0#
#675500
1"
1,
1-
#690000
0!
0+
#700000
0"
0,
0-
#705000
1!
1+
#710500
1"
1,
1-
#720000
0!
0+
#735000
0"
1!
0,
1+
0-
1.
1#
#745500
1"
1,
1-
#750000
0!
0+
#765000
1!
1+
#770000
0"
0,
0-
#780000
0!
0+
#780500
1"
1,
1-
#795000
1!
1+
#805000
0"
0,
0-
#810000
0!
0+
#815500
1"
1,
1-
#825000
1!
1+
#840000
0"
0!
0,
0+
0-
#850500
1"
1,
1-
#855000
1!
1+
#870000
0!
0+
#875000
0"
0,
0-
#885000
1!
1+
0.
0#
#885500
1"
1,
1-
#900000
0!
0+
#910000
0"
0,
0-
#915000
1!
1+
#920500
1"
1,
1-
#930000
0!
0+
#945000
0"
1!
0,
1+
0-
1.
1#
#955500
1"
1,
1-
#960000
0!
0+
#975000
1!
1+
#980000
0"
0,
0-
#990000
0!
0+
#990500
1"
1,
1-
