Lab4/simulation/qsim/Lab4.msim.vcd
$comment
	File created using the following command:
		vcd file Lab4.msim.vcd -direction
$end
$date
	Sat Oct 02 21:27:41 2021
$end
$version
	ModelSim Version 10.4d
$end
$timescale
	1ps
$end

$scope module Lab4_vlg_vec_tst $end
$var reg 1 ! a $end
$var reg 1 " b $end
$var reg 1 # c $end
$var reg 1 $ d $end
$var wire 1 % f $end

$scope module i1 $end
$var wire 1 & gnd $end
$var wire 1 ' vcc $end
$var wire 1 ( unknown $end
$var tri1 1 ) devclrn $end
$var tri1 1 * devpor $end
$var tri1 1 + devoe $end
$var wire 1 , c~input_o $end
$var wire 1 - ~QUARTUS_CREATED_GND~I_combout $end
$var wire 1 . a~input_o $end
$var wire 1 / d~input_o $end
$var wire 1 0 b~input_o $end
$var wire 1 1 f~0_combout $end
$upscope $end
$upscope $end
$enddefinitions $end
#0
$dumpvars
0!
0"
0#
0$
0%
0&
1'
x(
1)
1*
1+
0,
0-
0.
0/
00
01
$end
#10000
1$
1/
11
1%
#20000
1#
0$
1,
0/
01
0%
#30000
1$
1/
11
1%
#40000
1"
0#
0$
10
0,
0/
#50000
1$
1/
#60000
1#
0$
1,
0/
#70000
1$
1/
#80000
1!
0"
0#
0$
1.
00
0,
0/
01
0%
#90000
1$
1/
#100000
1#
0$
1,
0/
#110000
1$
1/
#120000
1"
0#
0$
10
0,
0/
11
1%
#130000
1$
1/
#140000
1#
0$
1,
0/
#150000
1$
1/
