lab06/simulation/qsim/lab06.msim.vcd
$comment
	File created using the following command:
		vcd file lab06.msim.vcd -direction
$end
$date
	Sun Nov 07 14:55:29 2021
$end
$version
	ModelSim Version 10.4d
$end
$timescale
	1ps
$end

$scope module lab06_vlg_vec_tst $end
$var reg 1 ! w $end
$var reg 1 " x $end
$var reg 1 # y $end
$var reg 1 $ z $end
$var wire 1 % f $end

$scope module i1 $end
$var wire 1 & gnd $end
$var wire 1 ' vcc $end
$var wire 1 ( unknown $end
$var tri1 1 ) devclrn $end
$var tri1 1 * devpor $end
$var tri1 1 + devoe $end
$var wire 1 , ~QUARTUS_CREATED_GND~I_combout $end
$var wire 1 - z~input_o $end
$var wire 1 . w~input_o $end
$var wire 1 / x~input_o $end
$var wire 1 0 y~input_o $end
$var wire 1 1 inst|sub|81~0_combout $end
$upscope $end
$upscope $end
$enddefinitions $end
#0
$dumpvars
0!
0"
0#
0$
0%
0&
1'
x(
1)
1*
1+
0,
0-
0.
0/
00
01
$end
#10000
1!
1.
#20000
1"
0!
1/
0.
#30000
1!
1.
11
1%
#40000
1#
0"
0!
10
0/
0.
01
0%
#50000
1!
1.
11
1%
#60000
1"
0!
1/
0.
#70000
1!
1.
01
0%
#80000
1$
0#
0"
0!
1-
00
0/
0.
#90000
1!
1.
11
1%
#100000
1"
0!
1/
0.
#110000
1!
1.
01
0%
#120000
1#
0"
0!
10
0/
0.
11
1%
#130000
1!
1.
01
0%
#140000
1"
0!
1/
0.
#150000
1!
1.
